[gd_resource type="DynamicFont" load_steps=2 format=2]

[ext_resource path="res://wns/assets/fonts/oswald/static/Oswald-ExtraLight.ttf" type="DynamicFontData" id=1]

[resource]
size = 32
outline_size = 1
use_mipmaps = true
use_filter = true
font_data = ExtResource( 1 )
