[gd_scene load_steps=2 format=2]

[ext_resource path="res://wns/game/game_top_ui.gd" type="Script" id=1]

[node name="game_top_ui" type="Control"]
anchor_right = 1.0
anchor_bottom = 1.0
mouse_filter = 2
script = ExtResource( 1 )
__meta__ = {
"_edit_use_anchors_": false
}

[node name="left_box" type="HBoxContainer" parent="."]
anchor_top = 0.5
anchor_bottom = 0.5
margin_left = 4.0
grow_vertical = 2
__meta__ = {
"_edit_use_anchors_": false
}

[node name="swap_sides" type="Button" parent="left_box"]
margin_right = 78.0
margin_bottom = 61.0
text = "swap"

[node name="flip_far_side" type="Button" parent="left_box"]
margin_left = 86.0
margin_right = 143.0
margin_bottom = 61.0
text = "flip"
__meta__ = {
"_edit_use_anchors_": false
}

[node name="right_box" type="HBoxContainer" parent="."]
anchor_left = 1.0
anchor_top = 0.5
anchor_right = 1.0
anchor_bottom = 0.5
margin_right = -4.0
grow_horizontal = 0
grow_vertical = 2
__meta__ = {
"_edit_use_anchors_": false
}

[node name="restart_game" type="Button" parent="right_box"]
margin_right = 93.0
margin_bottom = 61.0
text = "restart"

[node name="exit_game" type="Button" parent="right_box"]
margin_left = 101.0
margin_right = 163.0
margin_bottom = 61.0
text = "exit"

[connection signal="pressed" from="left_box/swap_sides" to="." method="_on_swap_sides_pressed"]
[connection signal="pressed" from="right_box/restart_game" to="." method="_on_restart_game_pressed"]
[connection signal="pressed" from="right_box/exit_game" to="." method="_on_exit_game_pressed"]
