[gd_scene load_steps=2 format=2]

[ext_resource path="res://wns/assets/textures/pawn_warm_blank_icon.png" type="Texture" id=1]

[node name="pawn_warm_blank0" type="TextureRect"]
margin_top = 168.0
margin_right = 50.0
margin_bottom = 216.0
texture = ExtResource( 1 )
