[gd_scene load_steps=2 format=2]

[ext_resource path="res://wns/game/who_is_near.gd" type="Script" id=1]

[node name="who_is_near" type="HBoxContainer"]
margin_left = 677.0
margin_top = 509.0
margin_right = 1243.0
margin_bottom = 570.0
script = ExtResource( 1 )
__meta__ = {
"_edit_use_anchors_": false
}

[node name="swap_sides" type="Button" parent="."]
margin_right = 137.0
margin_bottom = 61.0
text = "swap sides"

[node name="turn_far_side" type="Button" parent="."]
margin_left = 145.0
margin_right = 360.0
margin_bottom = 61.0
text = "turn far side aroud"

[node name="ok" type="Button" parent="."]
margin_left = 368.0
margin_right = 416.0
margin_bottom = 61.0
text = "ok"

[node name="v_separator" type="VSeparator" parent="."]
margin_left = 424.0
margin_right = 432.0
margin_bottom = 61.0

[node name="exit" type="Button" parent="."]
margin_left = 440.0
margin_right = 566.0
margin_bottom = 61.0
text = "exit game"
